v 0.442627 2.011981 -1.251755
v 0.442166 2.011981 0.748245
v -1.557835 0.011981 0.747784
v -1.557374 0.011980 -1.252216
v -1.557374 2.011981 -1.252216
v -1.557834 2.011981 0.747784
v -1.557374 2.011981 -1.252216
v 0.442627 2.011980 -1.251755
v -1.557834 2.011981 0.747784
v 0.442165 2.011980 0.748245
v 0.442626 0.011980 -1.251755
v 0.442165 0.011980 0.748245
vt 0.0052 0.0052
vt 0.9948 0.9948
vt 0.0052 0.9948
vt 0.0051 0.9949
vt 0.9949 0.0051
vt 0.9949 0.9949
vt 0.9948 0.0052
vt 0.0052 0.9948
vt 0.0052 0.0052
vt 0.9948 0.0052
vt 0.0052 0.9948
vt 0.9948 0.0052
vt 0.0052 0.9948
vt 0.0052 0.0052
vt 0.9949 0.0051
vt 0.0051 0.9949
vt 0.9949 0.9949
vt 0.9948 0.0052
vt 0.0051 0.0051
vt 0.9948 0.9948
vt 0.9948 0.9948
vt 0.0051 0.0051
vn -1.0000 -0.0000 -0.0002
vn 0.0000 1.0000 0.0000
vn 0.0002 0.0000 -1.0000
vn -0.0002 -0.0000 1.0000
vn 1.0000 -0.0000 0.0002
vn 0.0000 -1.0000 0.0000
s off
f 3/1/1 5/2/1 4/3/1
f 7/4/2 10/5/2 8/6/2
f 5/7/3 11/8/3 4/9/3
f 12/10/4 6/11/4 3/1/4
f 11/12/5 2/13/5 12/14/5
f 12/15/6 4/16/6 11/17/6
f 3/1/1 6/18/1 5/2/1
f 7/4/2 9/19/2 10/5/2
f 5/7/3 1/20/3 11/8/3
f 12/10/4 2/21/4 6/11/4
f 11/12/5 1/20/5 2/13/5
f 12/15/6 3/22/6 4/16/6
