info face="DejaVu Sans ExtraLight" size=62 bold=0 italic=0 charset="" unicode=0 stretchH=100 smooth=1 aa=1 padding=8,8,8,8 spacing=0,0
common lineHeight=89 base=58 scaleW=512 scaleH=512 pages=1 packed=0
page id=0 file="DejaVuSansLightDistanceField.png"
chars count=97
char id=0     x=420  y=0    width=48   height=71   xoffset=-7   yoffset=6    xadvance=53   page=0    chnl=0 
char id=10    x=0    y=0    width=0    height=0    xoffset=-7   yoffset=0    xadvance=16   page=0    chnl=0 
char id=32    x=0    y=0    width=0    height=0    xoffset=-7   yoffset=0    xadvance=36   page=0    chnl=0 
char id=33    x=490  y=79   width=20   height=62   xoffset=-7   yoffset=4    xadvance=41   page=0    chnl=0 
char id=34    x=175  y=450  width=31   height=34   xoffset=-7   yoffset=4    xadvance=45   page=0    chnl=0 
char id=35    x=236  y=336  width=60   height=61   xoffset=-7   yoffset=5    xadvance=68   page=0    chnl=0 
char id=36    x=142  y=0    width=46   height=74   xoffset=-7   yoffset=2    xadvance=55   page=0    chnl=0 
char id=37    x=354  y=147  width=67   height=64   xoffset=-7   yoffset=3    xadvance=75   page=0    chnl=0 
char id=38    x=421  y=147  width=56   height=64   xoffset=-7   yoffset=3    xadvance=64   page=0    chnl=0 
char id=39    x=206  y=450  width=19   height=34   xoffset=-7   yoffset=4    xadvance=33   page=0    chnl=0 
char id=40    x=188  y=0    width=28   height=73   xoffset=-7   yoffset=2    xadvance=40   page=0    chnl=0 
char id=41    x=216  y=0    width=28   height=73   xoffset=-7   yoffset=2    xadvance=40   page=0    chnl=0 
char id=42    x=132  y=450  width=43   height=46   xoffset=-7   yoffset=3    xadvance=47   page=0    chnl=0 
char id=43    x=331  y=336  width=56   height=55   xoffset=-7   yoffset=11   xadvance=68   page=0    chnl=0 
char id=44    x=364  y=450  width=21   height=28   xoffset=-7   yoffset=46   xadvance=36   page=0    chnl=0 
char id=45    x=461  y=450  width=33   height=20   xoffset=-7   yoffset=31   xadvance=38   page=0    chnl=0 
char id=46    x=441  y=450  width=20   height=20   xoffset=-7   yoffset=46   xadvance=36   page=0    chnl=0 
char id=47    x=468  y=0    width=35   height=68   xoffset=-7   yoffset=4    xadvance=37   page=0    chnl=0 
char id=48    x=309  y=147  width=45   height=64   xoffset=-7   yoffset=3    xadvance=55   page=0    chnl=0 
char id=49    x=101  y=336  width=43   height=62   xoffset=-7   yoffset=4    xadvance=55   page=0    chnl=0 
char id=50    x=49   y=211  width=46   height=63   xoffset=-7   yoffset=3    xadvance=55   page=0    chnl=0 
char id=51    x=129  y=147  width=45   height=64   xoffset=-7   yoffset=3    xadvance=55   page=0    chnl=0 
char id=52    x=144  y=336  width=48   height=62   xoffset=-7   yoffset=4    xadvance=55   page=0    chnl=0 
char id=53    x=95   y=211  width=43   height=63   xoffset=-7   yoffset=4    xadvance=55   page=0    chnl=0 
char id=54    x=174  y=147  width=45   height=64   xoffset=-7   yoffset=3    xadvance=55   page=0    chnl=0 
char id=55    x=192  y=336  width=44   height=62   xoffset=-7   yoffset=4    xadvance=55   page=0    chnl=0 
char id=56    x=219  y=147  width=45   height=64   xoffset=-7   yoffset=3    xadvance=55   page=0    chnl=0 
char id=57    x=264  y=147  width=45   height=64   xoffset=-7   yoffset=3    xadvance=55   page=0    chnl=0 
char id=58    x=112  y=450  width=20   height=46   xoffset=-7   yoffset=20   xadvance=37   page=0    chnl=0 
char id=59    x=387  y=336  width=21   height=54   xoffset=-7   yoffset=20   xadvance=37   page=0    chnl=0 
char id=60    x=0    y=450  width=56   height=47   xoffset=-7   yoffset=15   xadvance=68   page=0    chnl=0 
char id=61    x=279  y=450  width=56   height=29   xoffset=-7   yoffset=24   xadvance=68   page=0    chnl=0 
char id=62    x=56   y=450  width=56   height=47   xoffset=-7   yoffset=15   xadvance=68   page=0    chnl=0 
char id=63    x=138  y=211  width=40   height=63   xoffset=-7   yoffset=3    xadvance=49   page=0    chnl=0 
char id=64    x=298  y=0    width=67   height=72   xoffset=-7   yoffset=6    xadvance=78   page=0    chnl=0 
char id=65    x=178  y=211  width=56   height=62   xoffset=-7   yoffset=4    xadvance=58   page=0    chnl=0 
char id=66    x=234  y=211  width=46   height=62   xoffset=-7   yoffset=4    xadvance=57   page=0    chnl=0 
char id=67    x=124  y=79   width=51   height=64   xoffset=-7   yoffset=3    xadvance=59   page=0    chnl=0 
char id=68    x=280  y=211  width=52   height=62   xoffset=-7   yoffset=4    xadvance=64   page=0    chnl=0 
char id=69    x=332  y=211  width=43   height=62   xoffset=-7   yoffset=4    xadvance=55   page=0    chnl=0 
char id=70    x=375  y=211  width=40   height=62   xoffset=-7   yoffset=4    xadvance=52   page=0    chnl=0 
char id=71    x=175  y=79   width=53   height=64   xoffset=-7   yoffset=3    xadvance=64   page=0    chnl=0 
char id=72    x=415  y=211  width=48   height=62   xoffset=-7   yoffset=4    xadvance=63   page=0    chnl=0 
char id=73    x=477  y=147  width=20   height=62   xoffset=-7   yoffset=4    xadvance=34   page=0    chnl=0 
char id=74    x=115  y=0    width=27   height=74   xoffset=-7   yoffset=4    xadvance=34   page=0    chnl=0 
char id=75    x=463  y=211  width=46   height=62   xoffset=-7   yoffset=4    xadvance=57   page=0    chnl=0 
char id=76    x=0    y=274  width=42   height=62   xoffset=-7   yoffset=4    xadvance=51   page=0    chnl=0 
char id=77    x=42   y=274  width=51   height=62   xoffset=-7   yoffset=4    xadvance=70   page=0    chnl=0 
char id=78    x=93   y=274  width=46   height=62   xoffset=-7   yoffset=4    xadvance=62   page=0    chnl=0 
char id=79    x=228  y=79   width=55   height=64   xoffset=-7   yoffset=3    xadvance=65   page=0    chnl=0 
char id=80    x=139  y=274  width=43   height=62   xoffset=-7   yoffset=4    xadvance=53   page=0    chnl=0 
char id=81    x=365  y=0    width=55   height=71   xoffset=-7   yoffset=3    xadvance=65   page=0    chnl=0 
char id=82    x=182  y=274  width=49   height=62   xoffset=-7   yoffset=4    xadvance=59   page=0    chnl=0 
char id=83    x=283  y=79   width=46   height=64   xoffset=-7   yoffset=3    xadvance=55   page=0    chnl=0 
char id=84    x=231  y=274  width=52   height=62   xoffset=-7   yoffset=4    xadvance=54   page=0    chnl=0 
char id=85    x=0    y=211  width=49   height=63   xoffset=-7   yoffset=4    xadvance=61   page=0    chnl=0 
char id=86    x=283  y=274  width=56   height=62   xoffset=-7   yoffset=4    xadvance=58   page=0    chnl=0 
char id=87    x=339  y=274  width=68   height=62   xoffset=-7   yoffset=4    xadvance=77   page=0    chnl=0 
char id=88    x=407  y=274  width=52   height=62   xoffset=-7   yoffset=4    xadvance=58   page=0    chnl=0 
char id=89    x=459  y=274  width=52   height=62   xoffset=-7   yoffset=4    xadvance=54   page=0    chnl=0 
char id=90    x=0    y=336  width=54   height=62   xoffset=-7   yoffset=4    xadvance=58   page=0    chnl=0 
char id=91    x=244  y=0    width=27   height=73   xoffset=-7   yoffset=2    xadvance=40   page=0    chnl=0 
char id=92    x=0    y=79   width=36   height=68   xoffset=-7   yoffset=4    xadvance=37   page=0    chnl=0 
char id=93    x=271  y=0    width=27   height=73   xoffset=-7   yoffset=2    xadvance=40   page=0    chnl=0 
char id=94    x=225  y=450  width=54   height=34   xoffset=-7   yoffset=4    xadvance=68   page=0    chnl=0 
char id=95    x=0    y=497  width=49   height=19   xoffset=-7   yoffset=62   xadvance=47   page=0    chnl=0 
char id=96    x=335  y=450  width=29   height=28   xoffset=-7   yoffset=0    xadvance=47   page=0    chnl=0 
char id=97    x=454  y=336  width=42   height=52   xoffset=-7   yoffset=15   xadvance=54   page=0    chnl=0 
char id=98    x=36   y=79   width=44   height=65   xoffset=-7   yoffset=2    xadvance=55   page=0    chnl=0 
char id=99    x=0    y=398  width=43   height=52   xoffset=-7   yoffset=15   xadvance=50   page=0    chnl=0 
char id=100   x=80   y=79   width=44   height=65   xoffset=-7   yoffset=2    xadvance=55   page=0    chnl=0 
char id=101   x=43   y=398  width=46   height=52   xoffset=-7   yoffset=15   xadvance=54   page=0    chnl=0 
char id=102   x=329  y=79   width=36   height=64   xoffset=-7   yoffset=2    xadvance=38   page=0    chnl=0 
char id=103   x=365  y=79   width=44   height=64   xoffset=-7   yoffset=15   xadvance=53   page=0    chnl=0 
char id=104   x=409  y=79   width=42   height=64   xoffset=-7   yoffset=2    xadvance=55   page=0    chnl=0 
char id=105   x=451  y=79   width=20   height=64   xoffset=-7   yoffset=2    xadvance=33   page=0    chnl=0 
char id=106   x=19   y=0    width=30   height=77   xoffset=-7   yoffset=2    xadvance=33   page=0    chnl=0 
char id=107   x=0    y=147  width=41   height=64   xoffset=-7   yoffset=2    xadvance=52   page=0    chnl=0 
char id=108   x=471  y=79   width=19   height=64   xoffset=-7   yoffset=2    xadvance=33   page=0    chnl=0 
char id=109   x=129  y=398  width=63   height=51   xoffset=-7   yoffset=15   xadvance=76   page=0    chnl=0 
char id=110   x=192  y=398  width=42   height=51   xoffset=-7   yoffset=15   xadvance=55   page=0    chnl=0 
char id=111   x=408  y=336  width=46   height=53   xoffset=-7   yoffset=15   xadvance=54   page=0    chnl=0 
char id=112   x=41   y=147  width=44   height=64   xoffset=-7   yoffset=15   xadvance=55   page=0    chnl=0 
char id=113   x=85   y=147  width=44   height=64   xoffset=-7   yoffset=15   xadvance=55   page=0    chnl=0 
char id=114   x=234  y=398  width=35   height=51   xoffset=-7   yoffset=15   xadvance=41   page=0    chnl=0 
char id=115   x=89   y=398  width=40   height=52   xoffset=-7   yoffset=15   xadvance=48   page=0    chnl=0 
char id=116   x=296  y=336  width=35   height=60   xoffset=-7   yoffset=6    xadvance=40   page=0    chnl=0 
char id=117   x=269  y=398  width=42   height=51   xoffset=-7   yoffset=16   xadvance=55   page=0    chnl=0 
char id=118   x=311  y=398  width=46   height=50   xoffset=-7   yoffset=16   xadvance=53   page=0    chnl=0 
char id=119   x=357  y=398  width=58   height=50   xoffset=-7   yoffset=16   xadvance=67   page=0    chnl=0 
char id=120   x=415  y=398  width=47   height=50   xoffset=-7   yoffset=16   xadvance=53   page=0    chnl=0 
char id=121   x=54   y=336  width=47   height=62   xoffset=-7   yoffset=16   xadvance=53   page=0    chnl=0 
char id=122   x=462  y=398  width=44   height=50   xoffset=-7   yoffset=16   xadvance=49   page=0    chnl=0 
char id=123   x=49   y=0    width=33   height=75   xoffset=-7   yoffset=2    xadvance=55   page=0    chnl=0 
char id=124   x=0    y=0    width=19   height=79   xoffset=-7   yoffset=2    xadvance=37   page=0    chnl=0 
char id=125   x=82   y=0    width=33   height=75   xoffset=-7   yoffset=2    xadvance=55   page=0    chnl=0 
char id=126   x=385  y=450  width=56   height=25   xoffset=-7   yoffset=26   xadvance=68   page=0    chnl=0 